<svg viewBox="0 0 100 100" xmlns="http://www.w3.org/2000/svg">
  <circle cx="50" cy="50" r="50"/>
</svg>

<!-- <svg viewBox="0 0 100 100">
  <circle cx="50" cy="50" r="50"/>
  <text x="50%" y="50%" text-anchor="middle" fill="white" font-size="18px" dy=".3em">BC</text>
</svg> -->